{
    "forbiddenArr": [],
    "monthCheckNowArr": [],
    "leastAllowVersion": "20220404",
    "leastVersionTip": "当前软件版本过低，请更新后使用",
    "leastVersionTipen": "The Version is too low, Please update",
    "leastActiveVersion": "20220405",
    "dayCheck": true,
    "tipBelowVersion": "2022201",
    "tip": "",
    "tipen": ""
}